ISSS608-VAA - In-class Exercise 5
…
agpop_mutated <- pop_data %>%
  mutate(`Year` = as.character(Year))%>%
  spread(AG, Population) %>%
  mutate(YOUNG = rowSums(.[4:8]))%>%
  mutate(ACTIVE = rowSums(.[9:16]))  %>%
  mutate(OLD = rowSums(.[17:21])) %>%
  mutate(TOTAL = rowSums(.[22:24])) %>%
  filter(Year == 2018)%>%
  filter(TOTAL > 0)

see how the data look like

agpop_mutated

# A tibble: 234 × 25
   PA        SZ    Year  AGE0-…¹ AGE05…² AGE10…³ AGE15…⁴ AGE20…⁵ AGE25…⁶ AGE30…⁷
   <chr>     <chr> <chr>   <dbl>   <dbl>   <dbl>   <dbl>   <dbl>   <dbl>   <dbl>
 1 Ang Mo K… Ang … 2018      180     270     320     300     260     300     270
 2 Ang Mo K… Chen… 2018     1060    1080    1080    1260    1400    1880    1940
 3 Ang Mo K… Chon… 2018      900     900    1030    1220    1380    1760    1830
 4 Ang Mo K… Kebu… 2018      720     850    1010    1120    1230    1460    1330
 5 Ang Mo K… Semb… 2018      220     310     380     500     550     500     300
 6 Ang Mo K… Shan… 2018      550     630     670     780     950    1080     990
 7 Ang Mo K… Tago… 2018      260     340     430     500     640     690     440
 8 Ang Mo K… Town… 2018      830     930     930     860    1020    1400    1350
 9 Ang Mo K… Yio … 2018      160     160     220     260     350     340     230
10 Ang Mo K… Yio … 2018      810    1070    1300    1450    1500    1590    1390
# … with 224 more rows, 15 more variables: `AGE35-39` <dbl>, `AGE40-44` <dbl>,
#   `AGE45-49` <dbl>, `AGE50-54` <dbl>, `AGE55-59` <dbl>, `AGE60-64` <dbl>,
#   `AGE65-69` <dbl>, `AGE70-74` <dbl>, `AGE75-79` <dbl>, `AGE80-84` <dbl>,
#   AGE85over <dbl>, YOUNG <dbl>, ACTIVE <dbl>, OLD <dbl>, TOTAL <dbl>, and
#   abbreviated variable names ¹​`AGE0-4`, ²​`AGE05-9`, ³​`AGE10-14`, ⁴​`AGE15-19`,
#   ⁵​`AGE20-24`, ⁶​`AGE25-29`, ⁷​`AGE30-34`
…
Heatmap

wh <- read_csv("data/WHData-2018.csv")
wh

# A tibble: 156 × 12
   Country        Region Happi…¹ Whisk…² Whisk…³ Dysto…⁴ GDP p…⁵ Socia…⁶ Healt…⁷
   <chr>          <chr>    <dbl>   <dbl>   <dbl>   <dbl>   <dbl>   <dbl>   <dbl>
 1 Albania        Centr…    4.59    4.70    4.48    1.46   0.916   0.817   0.79 
 2 Bosnia and He… Centr…    5.13    5.22    5.04    1.88   0.915   1.08    0.758
 3 Bulgaria       Centr…    4.93    5.02    4.84    1.22   1.05    1.52    0.712
 4 Croatia        Centr…    5.32    5.40    5.24    1.77   1.12    1.16    0.737
 5 Czech Republic Centr…    6.71    6.78    6.64    2.49   1.23    1.49    0.854
 6 Estonia        Centr…    5.74    5.82    5.66    1.46   1.2     1.53    0.737
 7 Hungary        Centr…    5.62    5.70    5.54    1.97   1.17    1.40    0.732
 8 Kosovo         Centr…    5.66    5.76    5.57    2.26   0.855   1.23    0.578
 9 Latvia         Centr…    5.93    6.00    5.86    2.14   1.15    1.45    0.671
10 Lithuania      Centr…    5.95    6.04    5.87    2.13   1.20    1.53    0.716
# … with 146 more rows, 3 more variables: `Freedom to make life choices` <dbl>,
#   Generosity <dbl>, `Perceptions of corruption` <dbl>, and abbreviated
#   variable names ¹​`Happiness score`, ²​`Whisker-high`, ³​`Whisker-low`,
#   ⁴​Dystopia, ⁵​`GDP per capita`, ⁶​`Social support`, ⁷​`Healthy life expectancy`
…
