ISSS608-VAA - Take-home Exercise 2
…
     TOD                 Pop               Time     
 Length:100928      Min.   :   0.00   Min.   :2022  
 Class :character   1st Qu.:   0.00   1st Qu.:2022  
 Mode  :character   Median :   0.00   Median :2022  
                    Mean   :  40.44   Mean   :2022  
                    3rd Qu.:  20.00   3rd Qu.:2022  
                    Max.   :2300.00   Max.   :2022  

Call the table name to see how the table look like.

Popdata2022

# A tibble: 100,928 × 7
   PA         SZ                     AG     Sex     TOD                Pop  Time
   <chr>      <chr>                  <chr>  <chr>   <chr>            <dbl> <dbl>
 1 Ang Mo Kio Ang Mo Kio Town Centre 0_to_4 Males   HDB 1- and 2-Ro…     0  2022
 2 Ang Mo Kio Ang Mo Kio Town Centre 0_to_4 Males   HDB 3-Room Flats    10  2022
 3 Ang Mo Kio Ang Mo Kio Town Centre 0_to_4 Males   HDB 4-Room Flats    10  2022
 4 Ang Mo Kio Ang Mo Kio Town Centre 0_to_4 Males   HDB 5-Room and …    30  2022
 5 Ang Mo Kio Ang Mo Kio Town Centre 0_to_4 Males   HUDC Flats (exc…     0  2022
 6 Ang Mo Kio Ang Mo Kio Town Centre 0_to_4 Males   Condominiums an…    50  2022
 7 Ang Mo Kio Ang Mo Kio Town Centre 0_to_4 Males   Landed Properti…     0  2022
 8 Ang Mo Kio Ang Mo Kio Town Centre 0_to_4 Males   Others               0  2022
 9 Ang Mo Kio Ang Mo Kio Town Centre 0_to_4 Females HDB 1- and 2-Ro…     0  2022
10 Ang Mo Kio Ang Mo Kio Town Centre 0_to_4 Females HDB 3-Room Flats     0  2022
# … with 100,918 more rows

4.3 Data Wrangling

4.31 Select focus column

In this stage, we take only four columns from the original dataset Popdata2022, namely PA (Planning Area), AG (Age Group), Sex (Gender), and Pop (Number of People), and assign them to the new dataset Popdata.

Popdata <- Popdata2022 %>% 
  select(PA, AG, Sex, Pop)
Popdata

# A tibble: 100,928 × 4
   PA         AG     Sex       Pop
   <chr>      <chr>  <chr>   <dbl>
 1 Ang Mo Kio 0_to_4 Males       0
 2 Ang Mo Kio 0_to_4 Males      10
 3 Ang Mo Kio 0_to_4 Males      10
 4 Ang Mo Kio 0_to_4 Males      30
 5 Ang Mo Kio 0_to_4 Males       0
 6 Ang Mo Kio 0_to_4 Males      50
 7 Ang Mo Kio 0_to_4 Males       0
 8 Ang Mo Kio 0_to_4 Males       0
 9 Ang Mo Kio 0_to_4 Females     0
10 Ang Mo Kio 0_to_4 Females     0
# … with 100,918 more rows
4.32 Deriving the frequency count by Planning Area, Age Group, Sex

As we want to display the number of people in each age group and gender for each planning region, we use the group by command and drop off the na value. Then, the new column sumPop is derived to represent the data.

Popdata <- Popdata %>% 
  group_by(PA, AG, Sex) %>% 
  na.omit() %>% 
  summarize(sumPop = sum(Pop))

`summarise()` has grouped output by 'PA', 'AG'. You can override using the
`.groups` argument.

Popdata

# A tibble: 2,090 × 4
# Groups:   PA, AG [1,045]
   PA         AG       Sex     sumPop
   <chr>      <chr>    <chr>    <dbl>
 1 Ang Mo Kio 0_to_4   Females   2480
 2 Ang Mo Kio 0_to_4   Males     2530
 3 Ang Mo Kio 10_to_14 Females   3320
 4 Ang Mo Kio 10_to_14 Males     3350
 5 Ang Mo Kio 15_to_19 Females   3620
 6 Ang Mo Kio 15_to_19 Males     3780
 7 Ang Mo Kio 20_to_24 Females   4030
 8 Ang Mo Kio 20_to_24 Males     4250
 9 Ang Mo Kio 25_to_29 Females   5020
10 Ang Mo Kio 25_to_29 Males     4960
# … with 2,080 more rows
…
Popdata %>%
  dplyr::count(AG) %>%
  arrange(desc(n))

# A tibble: 90 × 3
# Groups:   PA, AG [90]
   PA            AG        n
   <chr>         <fct> <int>
 1 Bedok         0-9       4
 2 Bedok         10-19     4
 3 Bedok         20-29     4
 4 Bedok         30-39     4
 5 Bedok         40-49     4
 6 Bedok         50-59     4
 7 Bedok         60-69     4
 8 Bedok         70-79     4
 9 Bedok         80-89     4
10 Choa Chu Kang 0-9       4
# … with 80 more rows
…
