ISSS608-VAA - Take-home Exercise 3
…
Resale <- Resale %>% 
  filter(flat_type %in% c("3 ROOM","4 ROOM", "5 ROOM"))

3.3 Change format of price to represent in kSGD

Resale <- Resale %>%
  mutate(resale_price=resale_price/100) %>% 
  rename('resale_price_kSGD' = 'resale_price')

Here, we can see that our data now only has 24,374 rows left after filter year and flat type.

Resale

# A tibble: 24,374 × 8
   town       flat_type storey_range floor_area_sqm lease_…¹ resal…² Year  Month
   <chr>      <chr>     <chr>                 <dbl>    <dbl>   <dbl> <chr> <chr>
 1 ANG MO KIO 3 ROOM    07 TO 09                 73     1977    3580 2022  01   
 2 ANG MO KIO 3 ROOM    07 TO 09                 67     1978    3550 2022  01   
 3 ANG MO KIO 3 ROOM    07 TO 09                 68     1981    3380 2022  01   
 4 ANG MO KIO 3 ROOM    07 TO 09                 82     1980    4200 2022  01   
 5 ANG MO KIO 3 ROOM    04 TO 06                 67     1980    3280 2022  01   
 6 ANG MO KIO 3 ROOM    01 TO 03                 83     1979    3600 2022  01   
 7 ANG MO KIO 3 ROOM    01 TO 03                 67     1980    3000 2022  01   
 8 ANG MO KIO 3 ROOM    04 TO 06                 67     1979    3330 2022  01   
 9 ANG MO KIO 3 ROOM    04 TO 06                 67     1979    3860 2022  01   
10 ANG MO KIO 3 ROOM    10 TO 12                 67     1980    3300 2022  01   
# … with 24,364 more rows, and abbreviated variable names ¹​lease_commence_date,
#   ²​resale_price_kSGD
…
