ISSS608-VAA - Hands-on Exercise 4
…
Visualising models

pacman::p_load(readxl, performance, parameters, see)

Importing Excel file: readxl methods

car_resale <- read_xls("data/ToyotaCorolla.xls", 
                       "data")
car_resale

# A tibble: 1,436 × 38
      Id Model       Price Age_0…¹ Mfg_M…² Mfg_Y…³     KM Quart…⁴ Weight Guara…⁵
   <dbl> <chr>       <dbl>   <dbl>   <dbl>   <dbl>  <dbl>   <dbl>  <dbl>   <dbl>
 1    81 TOYOTA Cor… 18950      25       8    2002  20019     100   1180       3
 2     1 TOYOTA Cor… 13500      23      10    2002  46986     210   1165       3
 3     2 TOYOTA Cor… 13750      23      10    2002  72937     210   1165       3
 4     3  TOYOTA Co… 13950      24       9    2002  41711     210   1165       3
 5     4 TOYOTA Cor… 14950      26       7    2002  48000     210   1165       3
 6     5 TOYOTA Cor… 13750      30       3    2002  38500     210   1170       3
 7     6 TOYOTA Cor… 12950      32       1    2002  61000     210   1170       3
 8     7  TOYOTA Co… 16900      27       6    2002  94612     210   1245       3
 9     8 TOYOTA Cor… 18600      30       3    2002  75889     210   1245       3
10    44 TOYOTA Cor… 16950      27       6    2002 110404     234   1255       3
# … with 1,426 more rows, 28 more variables: HP_Bin <chr>, CC_bin <chr>,
#   Doors <dbl>, Gears <dbl>, Cylinders <dbl>, Fuel_Type <chr>, Color <chr>,
#   Met_Color <dbl>, Automatic <dbl>, Mfr_Guarantee <dbl>,
#   BOVAG_Guarantee <dbl>, ABS <dbl>, Airbag_1 <dbl>, Airbag_2 <dbl>,
#   Airco <dbl>, Automatic_airco <dbl>, Boardcomputer <dbl>, CD_Player <dbl>,
#   Central_Lock <dbl>, Powered_Windows <dbl>, Power_Steering <dbl>,
#   Radio <dbl>, Mistlamps <dbl>, Sport_Model <dbl>, Backseat_Divider <dbl>, …
…
